%YAML 1.1
%TAG !u! tag:unity3d.com,2011:
--- !u!1045 &1
EditorBuildSettings:
  m_ObjectHideFlags: 0
  serializedVersion: 2
  m_Scenes:
  - enabled: 1
    path: Assets/_PROJECTASSETS/Scenes/01_Static_Example.unity
    guid: c9a0e3745a1390a4eb5f18455a976029
  m_configObjects: {}
